{
  "project_info": {
    "project_number": "972717269745",
    "firebase_url": "https://colorgame-2a965.firebaseio.com",
    "project_id": "colorgame-2a965",
    "storage_bucket": "colorgame-2a965.appspot.com"
  },
  "client": [
    {
      "client_info": {
        "mobilesdk_app_id": "1:972717269745:android:f2b70991583b11be",
        "android_client_info": {
          "package_name": "com.example.emked1.colorgame"
        }
      },
      "oauth_client": [
        {
          "client_id": "972717269745-eshlrcqoh2f199k38kbkj8k0bhueu1fp.apps.googleusercontent.com",
          "client_type": 3
        }
      ],
      "api_key": [
        {
          "current_key": "AIzaSyBioBUJaQXkLDbz7ihpu4gWnnI2pcAb9LQ"
        }
      ],
      "services": {
        "analytics_service": {
          "status": 1
        },
        "appinvite_service": {
          "status": 1,
          "other_platform_oauth_client": []
        },
        "ads_service": {
          "status": 2
        }
      }
    }
  ],
  "configuration_version": "1"
}